{
  "message": "Physical items dropped onto actor sheet from compendium or items directory will have their size automatically adjusted to match the actor.",
  "type": "Changelog",
  "issue": "2698"
}
